…
}


homicide_nest_df %>% 
  mutate(glm_output = map(data, glm_OR_CI)) %>% 
  unnest(glm_output) -> homicide_glm_df

homicide_glm_df
## # A tibble: 47 × 5
## # Groups:   city_state [47]
##    city_state      data                    OR CI_lower CI_upper
##    <chr>           <list>               <dbl>    <dbl>    <dbl>
##  1 Albuquerque, NM <tibble [178 × 4]>   1.77     0.831    3.76 
##  2 Atlanta, GA     <tibble [945 × 4]>   1.00     0.684    1.46 
##  3 Baltimore, MD   <tibble [2,753 × 4]> 0.426    0.325    0.558
##  4 Baton Rouge, LA <tibble [410 × 4]>   0.381    0.209    0.695
##  5 Birmingham, AL  <tibble [771 × 4]>   0.870    0.574    1.32 
##  6 Boston, MA      <tibble [492 × 4]>   0.674    0.356    1.28 
##  7 Buffalo, NY     <tibble [479 × 4]>   0.521    0.290    0.935
##  8 Charlotte, NC   <tibble [584 × 4]>   0.884    0.557    1.40 
##  9 Chicago, IL     <tibble [4,507 × 4]> 0.410    0.336    0.501
## 10 Cincinnati, OH  <tibble [679 × 4]>   0.400    0.236    0.677
## # … with 37 more rows
```
…
cv_df
## # A tibble: 100 × 9
##    train    test     .id   smooth_mod comp_mod1 comp_m…¹ rmse_…² rmse_…³ rmse_…⁴
##    <list>   <list>   <chr> <list>     <list>    <list>     <dbl>   <dbl>   <dbl>
##  1 <tibble> <tibble> 001   <gam>      <gam>     <gam>       510.    366.    337.
##  2 <tibble> <tibble> 002   <gam>      <gam>     <gam>       507.    331.    334.
##  3 <tibble> <tibble> 003   <gam>      <gam>     <gam>       483.    311.    334.
##  4 <tibble> <tibble> 004   <gam>      <gam>     <gam>       502.    346.    367.
##  5 <tibble> <tibble> 005   <gam>      <gam>     <gam>       514.    341.    342.
##  6 <tibble> <tibble> 006   <gam>      <gam>     <gam>       488.    320.    336.
##  7 <tibble> <tibble> 007   <gam>      <gam>     <gam>       479.    357.    336.
##  8 <tibble> <tibble> 008   <gam>      <gam>     <gam>       492.    328.    339.
##  9 <tibble> <tibble> 009   <gam>      <gam>     <gam>       508.    329.    346.
## 10 <tibble> <tibble> 010   <gam>      <gam>     <gam>       465.    318.    331.
## # … with 90 more rows, and abbreviated variable names ¹​comp_mod2,
## #   ²​rmse_smooth_mod, ³​rmse_comp_mod1, ⁴​rmse_comp_mod2
…
